debug/tb_calculadora.vcd
$date
	Thu May 07 16:19:16 2026
$end
$version
	ModelSim Version 10.4d
$end
$timescale
	1ps
$end

$scope module tb_calculadora $end
$var wire 1 ! fil0_s $end
$var wire 1 " fil1_s $end
$var wire 1 # fil2_s $end
$var wire 1 $ fil3_s $end
$var wire 1 % col0_s $end
$var wire 1 & col1_s $end
$var wire 1 ' col2_s $end
$var wire 1 ( col3_s $end
$var wire 1 ) sim_tecla [3] $end
$var wire 1 * sim_tecla [2] $end
$var wire 1 + sim_tecla [1] $end
$var wire 1 , sim_tecla [0] $end
$var wire 1 - sim_pulsar $end
$var wire 1 . mux_s [7] $end
$var wire 1 / mux_s [6] $end
$var wire 1 0 mux_s [5] $end
$var wire 1 1 mux_s [4] $end
$var wire 1 2 mux_s [3] $end
$var wire 1 3 mux_s [2] $end
$var wire 1 4 mux_s [1] $end
$var wire 1 5 mux_s [0] $end
$var wire 1 6 disp_s [7] $end
$var wire 1 7 disp_s [6] $end
$var wire 1 8 disp_s [5] $end
$var wire 1 9 disp_s [4] $end
$var wire 1 : disp_s [3] $end
$var wire 1 ; disp_s [2] $end
$var wire 1 < disp_s [1] $end
$var wire 1 = disp_s [0] $end

$scope module U_CALC $end
$var wire 1 > tecla_s [3] $end
$var wire 1 ? tecla_s [2] $end
$var wire 1 @ tecla_s [1] $end
$var wire 1 A tecla_s [0] $end
$var wire 1 B tecla_pulsada_s $end
$var wire 1 C op1_bcd_s [11] $end
$var wire 1 D op1_bcd_s [10] $end
$var wire 1 E op1_bcd_s [9] $end
$var wire 1 F op1_bcd_s [8] $end
$var wire 1 G op1_bcd_s [7] $end
$var wire 1 H op1_bcd_s [6] $end
$var wire 1 I op1_bcd_s [5] $end
$var wire 1 J op1_bcd_s [4] $end
$var wire 1 K op1_bcd_s [3] $end
$var wire 1 L op1_bcd_s [2] $end
$var wire 1 M op1_bcd_s [1] $end
$var wire 1 N op1_bcd_s [0] $end
$var wire 1 O op1_sgn_s $end
$var wire 1 P op2_bcd_s [11] $end
$var wire 1 Q op2_bcd_s [10] $end
$var wire 1 R op2_bcd_s [9] $end
$var wire 1 S op2_bcd_s [8] $end
$var wire 1 T op2_bcd_s [7] $end
$var wire 1 U op2_bcd_s [6] $end
$var wire 1 V op2_bcd_s [5] $end
$var wire 1 W op2_bcd_s [4] $end
$var wire 1 X op2_bcd_s [3] $end
$var wire 1 Y op2_bcd_s [2] $end
$var wire 1 Z op2_bcd_s [1] $end
$var wire 1 [ op2_bcd_s [0] $end
$var wire 1 \ op2_sgn_s $end
$var wire 1 ] op_sel_s [1] $end
$var wire 1 ^ op_sel_s [0] $end
$var wire 1 _ start_s $end
$var wire 1 ` done_bcd_s $end
$var wire 1 a res_bin_s [19] $end
$var wire 1 b res_bin_s [18] $end
$var wire 1 c res_bin_s [17] $end
$var wire 1 d res_bin_s [16] $end
$var wire 1 e res_bin_s [15] $end
$var wire 1 f res_bin_s [14] $end
$var wire 1 g res_bin_s [13] $end
$var wire 1 h res_bin_s [12] $end
$var wire 1 i res_bin_s [11] $end
$var wire 1 j res_bin_s [10] $end
$var wire 1 k res_bin_s [9] $end
$var wire 1 l res_bin_s [8] $end
$var wire 1 m res_bin_s [7] $end
$var wire 1 n res_bin_s [6] $end
$var wire 1 o res_bin_s [5] $end
$var wire 1 p res_bin_s [4] $end
$var wire 1 q res_bin_s [3] $end
$var wire 1 r res_bin_s [2] $end
$var wire 1 s res_bin_s [1] $end
$var wire 1 t res_bin_s [0] $end
$var wire 1 u res_bcd_s [23] $end
$var wire 1 v res_bcd_s [22] $end
$var wire 1 w res_bcd_s [21] $end
$var wire 1 x res_bcd_s [20] $end
$var wire 1 y res_bcd_s [19] $end
$var wire 1 z res_bcd_s [18] $end
$var wire 1 { res_bcd_s [17] $end
$var wire 1 | res_bcd_s [16] $end
$var wire 1 } res_bcd_s [15] $end
$var wire 1 ~ res_bcd_s [14] $end
$var wire 1 !! res_bcd_s [13] $end
$var wire 1 "! res_bcd_s [12] $end
$var wire 1 #! res_bcd_s [11] $end
$var wire 1 $! res_bcd_s [10] $end
$var wire 1 %! res_bcd_s [9] $end
$var wire 1 &! res_bcd_s [8] $end
$var wire 1 '! res_bcd_s [7] $end
$var wire 1 (! res_bcd_s [6] $end
$var wire 1 )! res_bcd_s [5] $end
$var wire 1 *! res_bcd_s [4] $end
$var wire 1 +! res_bcd_s [3] $end
$var wire 1 ,! res_bcd_s [2] $end
$var wire 1 -! res_bcd_s [1] $end
$var wire 1 .! res_bcd_s [0] $end
$var wire 1 /! res_sgn_s $end
$var wire 1 0! pres_s [1] $end
$var wire 1 1! pres_s [0] $end
$upscope $end
$upscope $end
$enddefinitions $end
#0
$dumpvars
1%
1&
1'
1(
0!
1"
1#
1$
0-
0B
0O
0\
0_
0/!
0`
0C
0D
0E
0F
0G
0H
0I
0J
0K
0L
0M
0N
0P
0Q
0R
0S
0T
0U
0V
0W
0X
0Y
0Z
0[
0)
0*
0+
0,
1.
1/
10
11
12
13
14
05
06
17
18
19
1:
1;
1<
0=
0>
0?
0@
0A
0]
0^
0a
0b
0c
0d
0e
0f
0g
0h
0i
0j
0k
0l
0m
0n
0o
0p
0q
0r
0s
0t
0u
0v
0w
0x
0y
0z
0{
0|
0}
0~
0!!
0"!
0#!
0$!
0%!
0&!
0'!
0(!
0)!
0*!
0+!
0,!
0-!
0.!
00!
01!
$end
#210000
15
04
0"
1!
0<
0;
0:
09
08
07
#290000
1-
1,
#310000
14
03
0#
1"
#410000
13
02
0$
1#
#510000
12
01
1$
0!
0%
#610000
11
00
1A
#710000
10
0/
#810000
1/
0.
#890000
0-
1%
#910000
05
1.
1<
1;
1:
19
18
17
#1010000
15
04
1B
0<
0;
0:
09
08
07
#1030000
1N
0B
1t
#1110000
14
03
0"
1!
#1210000
13
02
0#
1"
#1310000
12
01
0$
1#
#1410000
11
00
1$
0!
#1490000
1-
0,
1+
0&
#1510000
10
0/
0"
1!
1&
#1610000
1/
0.
0#
1"
#1710000
05
1.
0$
1#
19
18
#1810000
15
04
1$
0!
09
08
0&
#1910000
14
03
0A
1@
#2010000
13
02
#2090000
0-
1&
#2110000
12
01
#2210000
11
00
1B
#2230000
0N
1M
1J
0B
0t
1s
0s
1r
1q
#2310000
10
0/
0"
1!
#2410000
1/
0.
0#
1"
#2510000
05
1.
0$
1#
1=
1;
1:
18
17
#2610000
15
04
1$
0!
0=
0;
0:
19
07
#2690000
1-
1,
0'
#2710000
14
03
0"
1!
09
08
1'
#2810000
13
02
0#
1"
#2910000
12
01
0$
1#
#3010000
11
00
1$
0!
0'
#3110000
10
0/
1A
#3210000
1/
0.
#3290000
0-
1'
#3310000
05
1.
1=
1;
1:
18
17
#3410000
15
04
1B
0=
0;
0:
19
07
#3430000
1N
0J
1I
1F
0B
1=
1;
1:
09
17
1t
1s
0r
1p
1o
1n
#3510000
14
03
0"
1!
0=
0;
0:
19
07
#3610000
13
02
0#
1"
09
08
#3710000
12
01
0$
1#
#3810000
11
00
1$
0!
#3890000
1-
0,
1)
#3910000
10
0/
0"
1!
#4010000
1/
0.
0#
1"
#4110000
05
1.
0$
1#
1=
1:
19
18
17
0%
#4210000
15
04
0A
1>
1;
09
#4310000
14
03
0=
0;
0:
19
07
#4410000
13
02
09
08
#4490000
0-
1%
#4510000
12
01
#4610000
11
00
1$
0!
1B
#4630000
11!
0B
#4710000
10
0/
0"
1!
#4810000
1/
0.
0#
1"
#4910000
05
1.
0$
1#
1<
1;
1:
19
18
17
#5010000
15
04
1$
0!
0<
0;
0:
09
08
07
#5090000
1-
0+
1*
0)
#5110000
14
03
0"
1!
0%
#5210000
13
02
0@
1?
0>
#5310000
12
01
#5410000
11
00
#5510000
10
0/
#5610000
1/
0.
#5690000
0-
1%
#5710000
05
1.
1<
1;
1:
19
18
17
#5810000
15
04
1"
0!
1B
0<
0;
0:
09
08
07
#5830000
1Y
0B
1r
#5910000
14
03
0"
1!
#6010000
13
02
0#
1"
#6110000
12
01
0$
1#
#6210000
11
00
1$
0!
#6290000
1-
1,
#6310000
10
0/
0"
1!
0&
#6410000
1/
0.
1A
#6510000
05
1.
1=
1<
19
18
#6610000
15
04
0=
0<
09
08
#6710000
14
03
#6810000
13
02
#6890000
0-
1&
#6910000
12
01
#7010000
11
00
1"
0!
1B
#7030000
1[
1U
0B
0t
0s
0r
0q
0p
0o
0n
1m
1q
1o
#7110000
10
0/
0"
1!
#7210000
1/
0.
0#
1"
#7310000
05
1.
0$
1#
1=
1<
1:
19
17
#7410000
15
04
1$
0!
0:
18
07
#7490000
1-
0,
1+
#7510000
14
03
0"
1!
0=
0<
09
08
0'
#7610000
13
02
0A
1@
#7710000
12
01
#7810000
11
00
#7910000
10
0/
#8010000
1/
0.
#8090000
0-
1'
#8110000
05
1.
1=
1<
1:
19
17
#8210000
15
04
1"
0!
1B
0:
18
07
#8230000
0[
1Z
1W
1Q
0B
1:
08
17
1t
1s
0q
0o
1n
0m
1k
#8310000
14
03
0"
1!
0:
18
07
#8410000
13
02
0#
1"
0=
0<
09
08
#8510000
12
01
0$
1#
#8610000
11
00
1$
0!
#8690000
1-
1,
0*
1)
#8710000
10
0/
0"
1!
#8810000
1/
0.
0#
1"
#8910000
05
1.
0$
1#
1=
1<
1;
1:
19
17
0'
#9010000
15
04
1A
0?
1>
0;
#9110000
14
03
0:
18
07
#9210000
13
02
0=
0<
09
08
#9290000
0-
1'
#9310000
12
01
#9410000
11
00
1$
0!
1B
#9430000
1_
01!
10!
0B
#9450000
0_
#9510000
10
0/
0"
1!
#9610000
1/
0.
0#
1"
#9670000
1.!
#9690000
0.!
1-!
#9710000
05
1.
0-!
1,!
0$
1#
1=
1;
1:
18
17
1<
0;
0:
19
07
#9730000
1.!
0,!
1+!
1:
17
#9750000
0.!
1*!
1;
#9770000
1-!
1,!
0+!
1)!
08
#9790000
0,!
1(!
0<
09
18
#9810000
15
04
0-!
1,!
0*!
0)!
1&!
1$
0!
0=
0;
0:
19
1=
1<
07
#9830000
1.!
0,!
1+!
0(!
1'!
0&!
1%!
1;
1:
17
#9850000
1*!
1)!
1(!
0'!
1&!
0%!
1$!
0=
0<
0;
0:
#9890000
1`
#9910000
14
03
0"
1!
1=
1<
1:
08
#10010000
13
02
0#
1"
0=
0<
0:
09
07
#10110000
12
01
0$
1#
#10210000
11
00
1$
0!
#10310000
10
0/
0"
1!
#10410000
1/
0.
0#
1"
#10510000
05
1.
0$
1#
1=
1<
1:
19
18
17
#10610000
15
04
1$
0!
0=
0<
0:
#10710000
14
03
0"
1!
1=
1<
1:
08
#10810000
13
02
0#
1"
0=
0<
0:
09
07
#10910000
12
01
0$
1#
#11010000
11
00
1$
0!
#11110000
10
0/
0"
1!
#11210000
1/
0.
0#
1"
#11310000
05
1.
0$
1#
1=
1<
1:
19
18
17
#11410000
15
04
1$
0!
0=
0<
0:
#11510000
14
03
0"
1!
1=
1<
1:
08
#11610000
13
02
0#
1"
0=
0<
0:
09
07
#11710000
12
01
0$
1#
#11810000
11
00
1$
0!
#11890000
1-
0,
0+
0)
#11910000
10
0/
0"
1!
#12010000
1/
0.
0#
1"
#12110000
05
1.
0$
1#
1=
1<
1:
19
18
17
0&
#12210000
15
04
0A
0@
0>
0=
0<
0:
#12310000
14
03
1=
1<
1:
08
#12410000
13
02
0=
0<
0:
09
07
#12490000
0-
1&
#12510000
12
01
#12610000
11
00
1$
0!
1B
#12630000
00!
0N
0M
0I
0F
0Z
0Y
0W
0U
0Q
0B
0t
1q
1p
1o
0n
0s
0q
0p
0o
0k
#12710000
10
0/
0"
1!
#12810000
1/
0.
0#
1"
#12910000
05
1.
0$
1#
1<
1;
1:
19
18
17
#13010000
15
04
1$
0!
0<
0;
0:
09
08
07
#13110000
14
03
0"
1!
#13210000
13
02
0#
1"
#13290000
1-
1,
1)
0'
#13310000
12
01
0$
1#
1'
#13410000
11
00
1$
0!
#13510000
10
0/
0"
1!
#13610000
1/
0.
0#
1"
0'
#13710000
05
1.
1A
1>
1<
1;
1:
19
18
17
#13810000
15
04
0<
0;
0:
09
08
07
#13890000
0-
1'
#13910000
14
03
#14010000
13
02
1#
0!
1B
#14030000
1N
1K
0B
1t
1q
#14110000
12
01
0"
1!
#14210000
11
00
0#
1"
#14310000
10
0/
0$
1#
#14410000
1/
0.
1$
0!
#14490000
1-
#14510000
05
1.
0"
1!
1=
1<
1:
19
18
17
#14610000
15
04
0#
1"
0=
0<
0:
09
08
07
0'
#14710000
14
03
#14810000
13
02
#14910000
12
01
#15010000
11
00
#15090000
0-
1'
#15110000
10
0/
#15210000
1/
0.
1#
0!
1B
#15230000
1J
1G
0B
1s
0q
1o
1n
#15310000
05
1.
0"
1!
1=
1<
1:
19
18
17
#15410000
15
04
0#
1"
#15510000
14
03
0$
1#
0=
0<
0:
09
08
07
#15610000
13
02
1$
0!
#15690000
1-
#15710000
12
01
0"
1!
#15810000
11
00
0#
1"
0'
#15910000
10
0/
#16010000
1/
0.
#16110000
05
1.
1=
1<
1:
19
18
17
#16210000
15
04
#16290000
0-
1'
#16310000
14
03
0=
0<
0:
09
08
07
#16410000
13
02
1#
0!
1B
#16430000
1F
1C
0B
1r
1m
1l
1k
#16510000
12
01
0"
1!
#16610000
11
00
0#
1"
#16710000
10
0/
0$
1#
#16810000
1/
0.
1$
0!
#16890000
1-
1*
#16910000
05
1.
0"
1!
1=
1<
1:
19
18
17
#17010000
15
04
0#
1"
0(
#17110000
14
03
1?
#17210000
13
02
0=
0<
0:
09
08
07
#17310000
12
01
#17410000
11
00
#17490000
0-
1(
#17510000
10
0/
#17610000
1/
0.
1#
0!
1B
#17630000
11!
1^
0B
#17710000
05
1.
0"
1!
1<
1;
1:
19
18
17
#17810000
15
04
0#
1"
0<
0;
0:
09
08
07
#17910000
14
03
0$
1#
#18010000
13
02
1$
0!
#18090000
1-
0*
0)
0%
#18110000
12
01
0"
1!
1%
#18210000
11
00
0#
1"
#18310000
10
0/
0$
1#
#18410000
1/
0.
1$
0!
0%
#18510000
05
1.
0?
0>
1<
1;
1:
19
18
17
#18610000
15
04
0<
0;
0:
09
08
07
#18690000
0-
1%
#18710000
14
03
#18810000
13
02
1B
#18830000
1[
0B
0t
#18910000
12
01
0"
1!
#19010000
11
00
0#
1"
#19110000
10
0/
0$
1#
#19210000
1/
0.
1$
0!
#19290000
1-
1+
1)
#19310000
05
1.
0"
1!
19
18
#19410000
15
04
0#
1"
09
08
#19510000
14
03
0$
1#
0'
#19610000
13
02
1@
1>
#19710000
12
01
#19810000
11
00
#19890000
0-
1'
#19910000
10
0/
#20010000
1/
0.
1$
0!
1B
#20030000
1_
01!
10!
0B
#20050000
0`
0_
0.!
0+!
0*!
0)!
0(!
0&!
0$!
#20110000
05
1.
0"
1!
1<
1;
1:
19
18
17
#20210000
15
04
0#
1"
0<
0;
0:
09
08
07
#20270000
1.!
#20290000
1-!
#20310000
14
03
1,!
0$
1#
#20330000
0-!
1*!
#20350000
0,!
1)!
#20370000
0.!
1-!
0*!
1(!
#20390000
0-!
1,!
0(!
1&!
19
18
#20410000
13
02
1.!
0,!
1+!
0)!
1(!
0&!
1%!
1$
0!
09
08
#20430000
1*!
0(!
1'!
0%!
1$!
#20450000
0.!
1&!
0$!
1#!
#20490000
1`
#20510000
12
01
0"
1!
#20610000
11
00
0#
1"
#20710000
10
0/
0$
1#
#20810000
1/
0.
1$
0!
#20910000
05
1.
0"
1!
1=
1<
1;
1:
19
18
17
#21010000
15
04
0#
1"
0;
#21110000
14
03
0$
1#
#21210000
13
02
1$
0!
0=
0<
0:
09
08
07
#21310000
12
01
0"
1!
#21410000
11
00
0#
1"
#21510000
10
0/
0$
1#
#21610000
1/
0.
1$
0!
#21710000
05
1.
0"
1!
1=
1<
1;
1:
19
18
17
#21810000
15
04
0#
1"
0;
#21910000
14
03
0$
1#
#22010000
13
02
1$
0!
0=
0<
0:
09
08
07
#22110000
12
01
0"
1!
#22210000
11
00
0#
1"
#22310000
10
0/
0$
1#
#22410000
1/
0.
1$
0!
#22490000
1-
0,
0+
0)
#22510000
05
1.
0"
1!
1=
1<
1;
1:
19
18
17
#22610000
15
04
0#
1"
0;
#22710000
14
03
0$
1#
0&
#22810000
13
02
0A
0@
0>
0=
0<
0:
09
08
07
#22910000
12
01
#23010000
11
00
#23090000
0-
1&
#23110000
10
0/
#23210000
1/
0.
1$
0!
1B
#23230000
00!
0N
0K
0J
0G
0F
0C
0^
0[
0B
0s
0r
1q
1s
1r
1p
0o
0s
0r
0q
0p
0n
0m
0l
0k
#23310000
05
1.
0"
1!
1<
1;
1:
19
18
17
#23410000
15
04
0#
1"
0<
0;
0:
09
08
07
#23510000
14
03
0$
1#
#23610000
13
02
1$
0!
#23710000
12
01
0"
1!
#23810000
11
00
0#
1"
#23890000
1-
1,
#23910000
10
0/
0$
1#
#24010000
1/
0.
1$
0!
0%
#24110000
05
1.
1A
1<
1;
1:
19
18
17
#24210000
15
04
0<
0;
0:
09
08
07
#24310000
14
03
#24410000
13
02
#24490000
0-
1%
#24510000
12
01
#24610000
11
00
1B
#24630000
1N
0B
1t
#24710000
10
0/
0"
1!
#24810000
1/
0.
0#
1"
#24910000
05
1.
0$
1#
19
18
#25010000
15
04
1$
0!
09
08
#25090000
1-
0,
1+
0&
#25110000
14
03
0"
1!
1&
#25210000
13
02
0#
1"
#25310000
12
01
0$
1#
#25410000
11
00
1$
0!
0&
#25510000
10
0/
0A
1@
#25610000
1/
0.
#25690000
0-
1&
#25710000
05
1.
19
18
#25810000
15
04
1B
09
08
#25830000
0N
1M
1J
0B
19
18
0t
1s
0s
1r
1q
#25910000
14
03
0"
1!
09
08
#26010000
13
02
0#
1"
#26110000
12
01
0$
1#
#26210000
11
00
1$
0!
#26290000
1-
1*
1)
#26310000
10
0/
0"
1!
0(
#26410000
1/
0.
1?
1>
#26510000
05
1.
1=
1;
1:
18
17
#26610000
15
04
0=
0;
0:
19
07
#26710000
14
03
09
08
#26810000
13
02
#26890000
0-
1(
#26910000
12
01
#27010000
11
00
1"
0!
1B
#27030000
11!
1]
0B
0r
0q
#27110000
10
0/
0"
1!
#27210000
1/
0.
0#
1"
#27310000
05
1.
0$
1#
1<
1;
1:
19
18
17
#27410000
15
04
1$
0!
0<
0;
0:
09
08
07
#27490000
1-
1,
0+
0*
0)
0%
#27510000
14
03
0"
1!
1%
#27610000
13
02
0#
1"
#27710000
12
01
0$
1#
#27810000
11
00
1$
0!
0%
#27910000
10
0/
1A
0@
0?
0>
#28010000
1/
0.
#28090000
0-
1%
#28110000
05
1.
1<
1;
1:
19
18
17
#28210000
15
04
1B
0<
0;
0:
09
08
07
#28230000
1[
0B
1r
1q
#28310000
14
03
0"
1!
#28410000
13
02
0#
1"
#28510000
12
01
0$
1#
#28610000
11
00
1$
0!
#28690000
1-
0,
1+
0&
#28710000
10
0/
0"
1!
1&
#28810000
1/
0.
0#
1"
#28910000
05
1.
0$
1#
19
18
#29010000
15
04
1$
0!
09
08
0&
#29110000
14
03
0A
1@
#29210000
13
02
#29290000
0-
1&
#29310000
12
01
#29410000
11
00
1B
#29430000
0[
1Z
1W
0B
0r
1p
0q
1m
#29510000
10
0/
0"
1!
#29610000
1/
0.
0#
1"
#29710000
05
1.
0$
1#
1=
1;
1:
18
17
#29810000
15
04
1$
0!
0=
0;
0:
19
07
#29890000
1-
1,
1)
#29910000
14
03
0"
1!
09
08
#30010000
13
02
0#
1"
#30110000
12
01
0$
1#
0'
#30210000
11
00
1A
1>
#30310000
10
0/
#30410000
1/
0.
#30490000
0-
1'
#30510000
05
1.
1=
1;
1:
18
17
#30610000
15
04
1$
0!
1B
0=
0;
0:
19
07
#30630000
1_
01!
10!
0B
1=
1<
1:
17
#30650000
0`
0_
0+!
0*!
0'!
0&!
0#!
0=
0<
0:
09
08
07
#30710000
14
03
0"
1!
#30810000
13
02
0#
1"
#30910000
12
01
1.!
0$
1#
#30930000
0.!
1-!
#30950000
0-!
1,!
#30970000
1.!
0,!
1+!
#30990000
0.!
1*!
#31010000
11
00
1-!
1,!
0+!
1)!
1$
0!
#31030000
0,!
1(!
#31050000
0-!
1,!
0*!
0)!
1&!
#31090000
1`
#31110000
10
0/
0"
1!
#31210000
1/
0.
0#
1"
#31310000
05
1.
0$
1#
1=
1<
19
18
#31410000
15
04
1$
0!
#31510000
14
03
0"
1!
0=
0<
#31610000
13
02
0#
1"
09
08
#31710000
12
01
0$
1#
#31810000
11
00
1$
0!
#31910000
10
0/
0"
1!
#32010000
1/
0.
0#
1"
#32110000
05
1.
0$
1#
1=
1<
19
18
#32210000
15
04
1$
0!
#32310000
14
03
0"
1!
0=
0<
#32410000
13
02
0#
1"
09
08
#32510000
12
01
0$
1#
#32610000
11
00
1$
0!
#32710000
10
0/
0"
1!
#32810000
1/
0.
0#
1"
#32910000
05
1.
0$
1#
1=
1<
19
18
#33010000
15
04
1$
0!
#33090000
1-
0,
0+
0)
#33110000
14
03
0"
1!
0=
0<
#33210000
13
02
0#
1"
09
08
#33310000
12
01
0$
1#
0&
#33410000
11
00
0A
0@
0>
#33510000
10
0/
#33610000
1/
0.
#33690000
0-
1&
#33710000
05
1.
1=
1<
19
18
#33810000
15
04
1$
0!
1B
#33830000
00!
0M
0J
0]
0Z
0W
0B
1q
0m
0=
0<
09
08
1r
0q
0r
0p
#33910000
14
03
0"
1!
#34010000
13
02
0#
1"
#34110000
12
01
0$
1#
#34210000
11
00
1$
0!
#34310000
10
0/
0"
1!
#34410000
1/
0.
0#
1"
#34490000
1-
1,
1*
#34510000
05
1.
0$
1#
1<
1;
1:
19
18
17
#34610000
15
04
1$
0!
0<
0;
0:
09
08
07
#34710000
14
03
0"
1!
0&
#34810000
13
02
1A
1?
#34910000
12
01
#35010000
11
00
#35090000
0-
1&
#35110000
10
0/
#35210000
1/
0.
1"
0!
1B
#35230000
1N
1L
0B
1t
1r
#35310000
05
1.
0"
1!
1=
1<
1:
19
17
#35410000
15
04
0#
1"
0=
0<
0:
09
07
#35510000
14
03
0$
1#
#35610000
13
02
1$
0!
#35690000
1-
0,
0*
#35710000
12
01
0"
1!
#35810000
11
00
0#
1"
#35910000
10
0/
0$
1#
0&
#36010000
1/
0.
0A
0?
#36110000
05
1.
1=
1<
1:
19
17
#36210000
15
04
0=
0<
0:
09
07
#36290000
0-
1&
#36310000
14
03
#36410000
13
02
1$
0!
1B
#36430000
0N
0L
1J
1H
0B
0t
0r
1s
1p
1o
#36510000
12
01
0"
1!
#36610000
11
00
0#
1"
#36710000
10
0/
0$
1#
#36810000
1/
0.
1$
0!
#36890000
1-
1*
1)
#36910000
05
1.
0"
1!
1<
1;
1:
19
18
17
#37010000
15
04
0#
1"
1=
0;
08
#37110000
14
03
0$
1#
0=
0<
0:
09
07
0(
#37210000
13
02
1?
1>
#37310000
12
01
#37410000
11
00
#37490000
0-
1(
#37510000
10
0/
#37610000
1/
0.
1$
0!
1B
#37630000
1O
0B
1/!
#37710000
05
1.
0"
1!
1<
1;
1:
19
18
17
#37810000
15
04
0#
1"
1=
0;
08
#37910000
14
03
0$
1#
0<
0:
09
07
#38010000
13
02
1$
0!
0=
#38090000
1-
1,
#38110000
12
01
0"
1!
#38210000
11
00
0#
1"
0(
#38310000
10
0/
1A
#38410000
1/
0.
#38510000
05
1.
1<
1;
1:
19
18
17
#38610000
15
04
1=
0;
08
#38690000
0-
1(
#38710000
14
03
0<
0:
09
07
#38810000
13
02
1#
0!
1B
0=
#38830000
11!
1^
0B
#38910000
12
01
0"
1!
#39010000
11
00
0#
1"
#39110000
10
0/
0$
1#
#39210000
1/
0.
1$
0!
#39290000
1-
0,
1+
0*
0)
0&
#39310000
05
1.
0"
1!
1<
1;
1:
19
18
17
1&
#39410000
15
04
0#
1"
0<
0;
0:
09
08
07
#39510000
14
03
0$
1#
#39610000
13
02
1$
0!
0&
#39710000
12
01
0A
1@
0?
0>
#39810000
11
00
#39890000
0-
1&
#39910000
10
0/
#40010000
1/
0.
1B
#40030000
1Z
0B
0s
1r
#40110000
05
1.
0"
1!
1=
1;
1:
18
17
#40210000
15
04
0#
1"
0=
0;
0:
08
07
#40310000
14
03
0$
1#
#40410000
13
02
1$
0!
#40490000
1-
0+
#40510000
12
01
0"
1!
#40610000
11
00
0#
1"
#40710000
10
0/
0$
1#
0&
#40810000
1/
0.
0@
#40910000
05
1.
1=
1;
1:
18
17
#41010000
15
04
0=
0;
0:
08
07
#41090000
0-
1&
#41110000
14
03
#41210000
13
02
1$
0!
1B
#41230000
0Z
1V
0B
1s
0r
1r
0p
0o
1n
#41310000
12
01
0"
1!
#41410000
11
00
0#
1"
#41510000
10
0/
0$
1#
#41610000
1/
0.
1$
0!
#41690000
1-
#41710000
05
1.
0"
1!
1<
1;
1:
19
18
17
#41810000
15
04
0#
1"
1=
0<
09
#41910000
14
03
0$
1#
0=
0;
0:
08
07
0&
#42010000
13
02
#42110000
12
01
#42210000
11
00
#42290000
0-
1&
#42310000
10
0/
#42410000
1/
0.
1$
0!
1B
#42430000
0V
1R
0B
0r
1q
1p
1o
1m
#42510000
05
1.
0"
1!
1<
1;
1:
19
18
17
#42610000
15
04
0#
1"
#42710000
14
03
0$
1#
1=
0<
09
#42810000
13
02
1$
0!
0=
0;
0:
08
07
#42890000
1-
1,
1+
1)
#42910000
12
01
0"
1!
#43010000
11
00
0#
1"
#43110000
10
0/
0$
1#
0'
#43210000
1/
0.
1A
1@
1>
#43310000
05
1.
1<
1;
1:
19
18
17
#43410000
15
04
#43490000
0-
1'
#43510000
14
03
1=
0<
09
#43610000
13
02
1$
0!
1B
0=
0;
0:
08
07
#43630000
1_
01!
10!
0B
#43650000
0`
0_
0,!
0(!
0&!
#43710000
12
01
0"
1!
#43810000
11
00
0#
1"
#43910000
10
0/
1.!
0$
1#
1=
#43930000
1-!
#43950000
1,!
#43970000
0-!
1*!
#43990000
0,!
1)!
#44010000
1/
0.
0.!
1-!
0*!
1(!
1$
0!
0=
#44030000
1.!
0-!
1,!
0(!
1&!
#44050000
0.!
0,!
1*!
0)!
1(!
0&!
1%!
#44090000
1`
#44110000
05
1.
0"
1!
1<
1;
1:
19
18
17
#44210000
15
04
0#
1"
1=
0;
08
#44310000
14
03
0$
1#
0<
1;
09
18
#44410000
13
02
1$
0!
0=
0;
0:
08
07
#44510000
12
01
0"
1!
#44610000
11
00
0#
1"
#44710000
10
0/
0$
1#
1=
#44810000
1/
0.
1$
0!
0=
#44910000
05
1.
0"
1!
1<
1;
1:
19
18
17
#45010000
15
04
0#
1"
1=
0;
08
#45110000
14
03
0$
1#
0<
1;
09
18
#45210000
13
02
1$
0!
0=
0;
0:
08
07
#45310000
12
01
0"
1!
#45410000
11
00
0#
1"
#45510000
10
0/
0$
1#
1=
#45610000
1/
0.
1$
0!
0=
#45710000
05
1.
0"
1!
1<
1;
1:
19
18
17
#45810000
15
04
0#
1"
1=
0;
08
#45910000
14
03
0$
1#
0<
1;
09
18
#46010000
13
02
1$
0!
0=
0;
0:
08
07
